…
First, find the most common locations for SWC workshops. Summarize the number of different codes in the data frame `swc`, and group them by province as well.

``` r
# find the number of SWC workshops per code
codeCounts <- swc %>% group_by(simpleCode, province) %>% summarise( n=n()) %>% ungroup() %>% arrange(-n)
```

    ## Warning: package 'bindrcpp' was built under R version 3.4.4

``` r
print(codeCounts)
```

    ## # A tibble: 40 x 3
    ##    simpleCode       province                      n
    ##    <chr>            <chr>                     <int>
    ##  1 ubc              British Columbia             21
    ##  2 utoronto         Ontario                      14
    ##  3 sfu              British Columbia             10
    ##  4 uwaterloo        Ontario                       9
    ##  5 ualberta         Alberta                       7
    ##  6 mcgill           Quebec                        6
    ##  7 mcmaster         Ontario                       5
    ##  8 conestoga        Ontario                       4
    ##  9 universite-laval Quebec                        4
    ## 10 mun              Newfoundland and Labrador     3
    ## # ... with 30 more rows
…
